Anàlisi de les dades
…
el benestar i l’estrès de la persona enquestada

dades sobre la qualitat de l’aire i de l’ambient: els nivells de NO2 a la ciutat de Barcelona, NO2 a la zona on s’enquesta a la persona, micrograms per metre cúbic, nivells de partícules (PM2.5) a la ciutat, nivells de carboni negre (BC), temperatura mitjana durant 12 hores, humitat durant 12 hores. Aquestes variables serveixen per a mesurar la qualitat de l’aire i del clima.

dades personals: districte de la ciutat on viu, gènere i edat. També volíem estudiar diversos perfils i veure si algun l’afecta més o manco la contaminació.

Notem que com el nostre conjunt de dades ja estava prou ordenat (les files eren observacions i a cada columna trobàvem una variable), vàrem poder usar la gramàtica Tidyverse.

dades_bcn2 <- dades_bcn %>% 
  select(year,month,bienestar,estres,no2bcn_12h,no2gps_12h,district,µgm3,age_yrs,gender,pm25bcn,BCμg,tmean_12h,humi_12h)

dades_bcn2

# A tibble: 3,348 × 14
    year month bienestar estres no2bcn_12h no2gps_12h district      µgm3 age_yrs
   <dbl> <dbl>     <dbl>  <dbl>      <dbl>      <dbl> <chr>        <dbl>   <dbl>
 1  2020    10         9      1       35.7       23.6 Horta-Guina…  NA        49
 2  2020    10         8      5       22.7       24.5 Gràcia        19.7      37
 3  2020    10         9      8       41.0       46.9 Eixample      28.5      28
 4  2020    11         3      5       33.7       22.7 Sant Martí    15.7      29
 5  2020    11         9      6       44.7       NA   Sants-Montj…  26.7      33
 6  2020    12         7      2       32.8       36.6 Gràcia        33.5      25
 7  2021     2         3      5       38.7       40.6 Sant Martí    NA        45
 8  2020    11         6      1       18.3       18.6 Gràcia        10.6      36
 9  2020    11         7     NA       27.8       12.9 Horta-Guina…  18.3      52
10  2020    11         9      1       18.3       18.2 Ciutat Vella  37.5      28
# ℹ 3,338 more rows
# ℹ 5 more variables: gender <chr>, pm25bcn <dbl>, BCμg <dbl>, tmean_12h <dbl>,
#   humi_12h <dbl>
…
